{
  "version": "1.0",
  "defaultProvider": "unpkg",
  "libraries": [
    {
      "library": "@microsoft/signalr@latest",
      "destination": "wwwroot/js/signalr",
      "files": [
        "dist/browser/signalr.js",
        "dist/browser/signalr.min.js",
        "package.json",
        "README.md"
      ]
    },
    {
      "provider": "jsdelivr",
      "library": "@fancyapps/ui@4.0.5",
      "destination": "wwwroot/lib/fancyapps/ui/",
      "files": [
        "dist/carousel.autoplay.esm.js",
        "dist/carousel.autoplay.esm.min.js",
        "dist/carousel.autoplay.umd.js",
        "dist/carousel.autoplay.umd.min.js",
        "dist/carousel.css",
        "dist/carousel.esm.js",
        "dist/carousel.esm.min.js",
        "dist/carousel.min.css",
        "dist/carousel.umd.js",
        "dist/carousel.umd.min.js",
        "dist/fancybox.css",
        "dist/fancybox.esm.js",
        "dist/fancybox.esm.min.js",
        "dist/fancybox.min.css",
        "dist/fancybox.umd.js",
        "dist/fancybox.umd.min.js",
        "dist/panzoom.controls.css",
        "dist/panzoom.controls.esm.js",
        "dist/panzoom.controls.esm.min.js",
        "dist/panzoom.controls.min.css",
        "dist/panzoom.controls.umd.js",
        "dist/panzoom.controls.umd.min.js",
        "dist/panzoom.css",
        "dist/panzoom.esm.js",
        "dist/panzoom.esm.min.js",
        "dist/panzoom.min.css",
        "dist/panzoom.umd.js",
        "dist/panzoom.umd.min.js"
      ]
    }
  ]
}